C:\Users\Joy_Wang\IdeaProjects\work-connect-pom\work-connect-logic\src\main\java\com\cy\work\connect\logic\manager\WCConfigTempletManager.java
C:\Users\Joy_Wang\IdeaProjects\work-connect-pom\work-connect-logic\src\main\java\com\cy\work\connect\logic\manager\WCExecManagerSignInfoManager.java
C:\Users\Joy_Wang\IdeaProjects\work-connect-pom\work-connect-logic\src\main\java\com\cy\work\connect\logic\manager\WorkSettingRoleManager.java
C:\Users\Joy_Wang\IdeaProjects\work-connect-pom\work-connect-logic\src\main\java\com\cy\work\connect\logic\helper\PermissionLogicForExecDep.java
C:\Users\Joy_Wang\IdeaProjects\work-connect-pom\work-connect-logic\src\main\java\com\cy\work\connect\logic\config\WcSystemProjectCacheImpl.java
C:\Users\Joy_Wang\IdeaProjects\work-connect-pom\work-connect-logic\src\main\java\com\cy\work\connect\logic\cache\WCMemoCategoryCache.java
C:\Users\Joy_Wang\IdeaProjects\work-connect-pom\work-connect-logic\src\main\java\com\cy\work\connect\logic\cache\WCManagerSignInfoCache.java
C:\Users\Joy_Wang\IdeaProjects\work-connect-pom\work-connect-logic\src\main\java\com\cy\work\connect\logic\manager\WCTraceCustomLogicManager.java
C:\Users\Joy_Wang\IdeaProjects\work-connect-pom\work-connect-logic\src\main\java\com\cy\work\connect\logic\manager\WCTagManager.java
C:\Users\Joy_Wang\IdeaProjects\work-connect-pom\work-connect-logic\src\main\java\com\cy\work\connect\logic\helper\model\StartEndDateModel.java
C:\Users\Joy_Wang\IdeaProjects\work-connect-pom\work-connect-logic\src\main\java\com\cy\work\connect\logic\manager\WorkSettingUserManager.java
C:\Users\Joy_Wang\IdeaProjects\work-connect-pom\work-connect-logic\src\main\java\com\cy\work\connect\logic\manager\WorkParamManager.java
C:\Users\Joy_Wang\IdeaProjects\work-connect-pom\work-connect-logic\src\main\java\com\cy\work\connect\logic\cache\WCExecManagerSignInfoCache.java
C:\Users\Joy_Wang\IdeaProjects\work-connect-pom\work-connect-logic\src\main\java\com\cy\work\connect\logic\helper\PermissionLogicForCanUse.java
C:\Users\Joy_Wang\IdeaProjects\work-connect-pom\work-connect-logic\src\main\java\com\cy\work\connect\logic\helper\WCManagerSignInfoHelper.java
C:\Users\Joy_Wang\IdeaProjects\work-connect-pom\work-connect-logic\src\main\java\com\cy\work\connect\logic\manager\WorkGroupSetupPrivateManager.java
C:\Users\Joy_Wang\IdeaProjects\work-connect-pom\work-connect-logic\src\main\java\com\cy\work\connect\logic\vo\view\setting11\SettingOrgTransMappingVO.java
C:\Users\Joy_Wang\IdeaProjects\work-connect-pom\work-connect-logic\src\main\java\com\cy\work\connect\logic\helper\SignFlowForRequireLogic.java
C:\Users\Joy_Wang\IdeaProjects\work-connect-pom\work-connect-logic\src\main\java\com\cy\work\connect\logic\helper\WCExecManagerSignInfoCheckHelper.java
C:\Users\Joy_Wang\IdeaProjects\work-connect-pom\work-connect-logic\src\main\java\com\cy\work\connect\logic\vo\OpinionDescripeSettingVO.java
C:\Users\Joy_Wang\IdeaProjects\work-connect-pom\work-connect-logic\src\main\java\com\cy\work\connect\logic\helper\BrBpmLevelSettingHelper.java
C:\Users\Joy_Wang\IdeaProjects\work-connect-pom\work-connect-logic\src\main\java\com\cy\work\connect\logic\helper\SignFlowHelper.java
C:\Users\Joy_Wang\IdeaProjects\work-connect-pom\work-connect-logic\src\main\java\com\cy\work\connect\logic\helper\FuncItemGroupLogicHelper.java
C:\Users\Joy_Wang\IdeaProjects\work-connect-pom\work-connect-logic\src\main\java\com\cy\work\connect\logic\cache\WCTagCache.java
C:\Users\Joy_Wang\IdeaProjects\work-connect-pom\work-connect-logic\src\main\java\com\cy\work\connect\logic\manager\WCSetPermissionManager.java
C:\Users\Joy_Wang\IdeaProjects\work-connect-pom\work-connect-logic\src\main\java\com\cy\work\connect\logic\cache\WCBasePersonAccessInfoCache.java
C:\Users\Joy_Wang\IdeaProjects\work-connect-pom\work-connect-logic\src\main\java\com\cy\work\connect\logic\manager\WCMemoMasterManager.java
C:\Users\Joy_Wang\IdeaProjects\work-connect-pom\work-connect-logic\src\main\java\com\cy\work\connect\logic\manager\WCFunItemManager.java
C:\Users\Joy_Wang\IdeaProjects\work-connect-pom\work-connect-logic\src\main\java\com\cy\work\connect\logic\manager\WCBaseDepAccessInfoManager.java
C:\Users\Joy_Wang\IdeaProjects\work-connect-pom\work-connect-logic\src\main\java\com\cy\work\connect\logic\config\SysRestInitCacheConfig.java
C:\Users\Joy_Wang\IdeaProjects\work-connect-pom\work-connect-logic\src\main\java\com\cy\work\connect\logic\manager\WCAttachmentManager.java
C:\Users\Joy_Wang\IdeaProjects\work-connect-pom\work-connect-logic\src\main\java\com\cy\work\connect\logic\query\WCMasterQueryService.java
C:\Users\Joy_Wang\IdeaProjects\work-connect-pom\work-connect-logic\src\main\java\com\cy\work\connect\logic\vo\WCFavoriteWorkReportVO.java
C:\Users\Joy_Wang\IdeaProjects\work-connect-pom\work-connect-logic\src\main\java\com\cy\work\connect\logic\manager\WCMasterManager.java
C:\Users\Joy_Wang\IdeaProjects\work-connect-pom\work-connect-logic\src\main\java\com\cy\work\connect\logic\helper\signflow\ExecFlowActionHelper.java
C:\Users\Joy_Wang\IdeaProjects\work-connect-pom\work-connect-logic\src\main\java\com\cy\work\connect\logic\cache\WorkParamCache.java
C:\Users\Joy_Wang\IdeaProjects\work-connect-pom\work-connect-logic\src\main\java\com\cy\work\connect\logic\manager\WCSetGroupManager.java
C:\Users\Joy_Wang\IdeaProjects\work-connect-pom\work-connect-logic\src\main\java\com\cy\work\connect\logic\manager\SpecificRoleInquireDepManager.java
C:\Users\Joy_Wang\IdeaProjects\work-connect-pom\work-connect-logic\src\main\java\com\cy\work\connect\logic\helper\WCManagerSignInfoCheckHelper.java
C:\Users\Joy_Wang\IdeaProjects\work-connect-pom\work-connect-logic\src\main\java\com\cy\work\connect\logic\manager\WCFunItemGroupManager.java
C:\Users\Joy_Wang\IdeaProjects\work-connect-pom\work-connect-logic\src\main\java\com\cy\work\connect\logic\utils\Env.java
C:\Users\Joy_Wang\IdeaProjects\work-connect-pom\work-connect-logic\src\main\java\com\cy\work\connect\logic\manager\WCTraceManager.java
C:\Users\Joy_Wang\IdeaProjects\work-connect-pom\work-connect-logic\src\main\java\com\cy\work\connect\logic\manager\WCMemoTraceManager.java
C:\Users\Joy_Wang\IdeaProjects\work-connect-pom\work-connect-logic\src\main\java\com\cy\work\connect\logic\manager\WCMemoCategoryManager.java
C:\Users\Joy_Wang\IdeaProjects\work-connect-pom\work-connect-logic\src\main\java\com\cy\work\connect\logic\cache\WCHomepageFavoriteCache.java
C:\Users\Joy_Wang\IdeaProjects\work-connect-pom\work-connect-logic\src\main\java\com\cy\work\connect\logic\helper\WCExecManagerSignInfoHelper.java
C:\Users\Joy_Wang\IdeaProjects\work-connect-pom\work-connect-logic\src\main\java\com\cy\work\connect\logic\cache\WCOpinionDescripeSettingCache.java
C:\Users\Joy_Wang\IdeaProjects\work-connect-pom\work-connect-logic\src\main\java\com\cy\work\connect\logic\query\QueryService.java
C:\Users\Joy_Wang\IdeaProjects\work-connect-pom\work-connect-logic\src\main\java\com\cy\work\connect\logic\utils\ToolsDate.java
C:\Users\Joy_Wang\IdeaProjects\work-connect-pom\work-connect-logic\src\main\java\com\cy\work\connect\logic\manager\WCExecRollBackHistoryManager.java
C:\Users\Joy_Wang\IdeaProjects\work-connect-pom\work-connect-logic\src\main\java\com\cy\work\connect\logic\manager\WCReportCustomColumnManager.java
C:\Users\Joy_Wang\IdeaProjects\work-connect-pom\work-connect-logic\src\main\java\com\cy\work\connect\logic\vo\ExecReplyTo.java
C:\Users\Joy_Wang\IdeaProjects\work-connect-pom\work-connect-logic\src\main\java\com\cy\work\connect\logic\utils\ReqularPattenUtils.java
C:\Users\Joy_Wang\IdeaProjects\work-connect-pom\work-connect-logic\src\main\java\com\cy\work\connect\logic\vo\view\setting11\subfunc\Setting11ExecDepVO.java
C:\Users\Joy_Wang\IdeaProjects\work-connect-pom\work-connect-logic\src\main\java\com\cy\work\connect\logic\schedule\FlowDataSchedule.java
C:\Users\Joy_Wang\IdeaProjects\work-connect-pom\work-connect-logic\src\main\java\com\cy\work\connect\logic\vo\MenuTagVO.java
C:\Users\Joy_Wang\IdeaProjects\work-connect-pom\work-connect-logic\src\main\java\com\cy\work\connect\logic\helper\WCExecDepSettingHelper.java
C:\Users\Joy_Wang\IdeaProjects\work-connect-pom\work-connect-logic\src\main\java\com\cy\work\connect\logic\manager\WCMenuTagManager.java
C:\Users\Joy_Wang\IdeaProjects\work-connect-pom\work-connect-logic\src\main\java\com\cy\work\connect\logic\helper\LogHelper.java
C:\Users\Joy_Wang\IdeaProjects\work-connect-pom\work-connect-logic\src\main\java\com\cy\work\connect\logic\vo\view\setting11\SettingOrgTransPageVO.java
C:\Users\Joy_Wang\IdeaProjects\work-connect-pom\work-connect-logic\src\main\java\com\cy\work\connect\logic\helper\WaitAssignLogic.java
C:\Users\Joy_Wang\IdeaProjects\work-connect-pom\work-connect-logic\src\main\java\com\cy\work\connect\logic\manager\WCOpinionDescripeSettingManager.java
C:\Users\Joy_Wang\IdeaProjects\work-connect-pom\work-connect-logic\src\main\java\com\cy\work\connect\logic\manager\WCExecDepSettingManager.java
C:\Users\Joy_Wang\IdeaProjects\work-connect-pom\work-connect-logic\src\main\java\com\cy\work\connect\logic\helper\WCMemoTraceHelper.java
C:\Users\Joy_Wang\IdeaProjects\work-connect-pom\work-connect-logic\src\main\java\com\cy\work\connect\logic\cache\WCExecDepSettingCache.java
C:\Users\Joy_Wang\IdeaProjects\work-connect-pom\work-connect-logic\src\main\java\com\cy\work\connect\logic\manager\WCFavoriteManager.java
C:\Users\Joy_Wang\IdeaProjects\work-connect-pom\work-connect-logic\src\main\java\com\cy\work\connect\logic\helper\SignFlowForExecDepLogic.java
C:\Users\Joy_Wang\IdeaProjects\work-connect-pom\work-connect-logic\src\main\java\com\cy\work\connect\logic\vo\BpmRoleTo.java
C:\Users\Joy_Wang\IdeaProjects\work-connect-pom\work-connect-logic\src\main\java\com\cy\work\connect\logic\vo\GroupManagerSignInfo.java
C:\Users\Joy_Wang\IdeaProjects\work-connect-pom\work-connect-logic\src\main\java\com\cy\work\connect\logic\manager\WCCategoryTagManager.java
C:\Users\Joy_Wang\IdeaProjects\work-connect-pom\work-connect-logic\src\main\java\com\cy\work\connect\logic\helper\CheckLegalDateHelper.java
C:\Users\Joy_Wang\IdeaProjects\work-connect-pom\work-connect-logic\src\main\java\com\cy\work\connect\logic\helper\model\LegitimateRangeDateModel.java
C:\Users\Joy_Wang\IdeaProjects\work-connect-pom\work-connect-logic\src\main\java\com\cy\work\connect\logic\manager\WCMemoAttachmentManager.java
C:\Users\Joy_Wang\IdeaProjects\work-connect-pom\work-connect-logic\src\main\java\com\cy\work\connect\logic\vo\SingleManagerSignInfo.java
C:\Users\Joy_Wang\IdeaProjects\work-connect-pom\work-connect-logic\src\main\java\com\cy\work\connect\logic\cache\WCCategoryTagCache.java
C:\Users\Joy_Wang\IdeaProjects\work-connect-pom\work-connect-logic\src\main\java\com\cy\work\connect\logic\vo\WCTagTempletVo.java
C:\Users\Joy_Wang\IdeaProjects\work-connect-pom\work-connect-logic\src\main\java\com\cy\work\connect\logic\vo\RoleSIDVO.java
C:\Users\Joy_Wang\IdeaProjects\work-connect-pom\work-connect-logic\src\main\java\com\cy\work\connect\logic\utils\JpegExifRewriter.java
C:\Users\Joy_Wang\IdeaProjects\work-connect-pom\work-connect-logic\src\main\java\com\cy\work\connect\logic\helper\ExecDepLogic.java
C:\Users\Joy_Wang\IdeaProjects\work-connect-pom\work-connect-logic\src\main\java\com\cy\work\connect\logic\manager\WCExecDepHistoryManager.java
C:\Users\Joy_Wang\IdeaProjects\work-connect-pom\work-connect-logic\src\main\java\com\cy\work\connect\logic\helper\MenuTagHelper.java
C:\Users\Joy_Wang\IdeaProjects\work-connect-pom\work-connect-logic\src\main\java\com\cy\work\connect\logic\manager\BpmManager.java
C:\Users\Joy_Wang\IdeaProjects\work-connect-pom\work-connect-logic\src\main\java\com\cy\work\connect\logic\vo\WorkFunItemVO.java
C:\Users\Joy_Wang\IdeaProjects\work-connect-pom\work-connect-logic\src\main\java\com\cy\work\connect\logic\vo\view\setting11\subfunc\Setting11TransDepVO.java
C:\Users\Joy_Wang\IdeaProjects\work-connect-pom\work-connect-logic\src\main\java\com\cy\work\connect\logic\helper\WaitReceiveLogic.java
C:\Users\Joy_Wang\IdeaProjects\work-connect-pom\work-connect-logic\src\main\java\com\cy\work\connect\logic\vo\AttachmentVO.java
C:\Users\Joy_Wang\IdeaProjects\work-connect-pom\work-connect-logic\src\main\java\com\cy\work\connect\logic\manager\WCExecDepManager.java
C:\Users\Joy_Wang\IdeaProjects\work-connect-pom\work-connect-logic\src\main\java\com\cy\work\connect\logic\utils\FileNameValidator.java
C:\Users\Joy_Wang\IdeaProjects\work-connect-pom\work-connect-logic\src\main\java\com\cy\work\connect\logic\cache\WCMenuTagCache.java
C:\Users\Joy_Wang\IdeaProjects\work-connect-pom\work-connect-logic\src\main\java\com\cy\work\connect\logic\vo\CategoryTagVO.java
C:\Users\Joy_Wang\IdeaProjects\work-connect-pom\work-connect-logic\src\main\java\com\cy\work\connect\logic\vo\BpmCreateTo.java
C:\Users\Joy_Wang\IdeaProjects\work-connect-pom\work-connect-logic\src\main\java\com\cy\work\connect\logic\manager\WCBasePersonAccessInfoManager.java
C:\Users\Joy_Wang\IdeaProjects\work-connect-pom\work-connect-logic\src\main\java\com\cy\work\connect\logic\config\ConnectConstants.java
C:\Users\Joy_Wang\IdeaProjects\work-connect-pom\work-connect-logic\src\main\java\com\cy\work\connect\logic\manager\WCTagTempletManager.java
C:\Users\Joy_Wang\IdeaProjects\work-connect-pom\work-connect-logic\src\main\java\com\cy\work\connect\logic\utils\AttachmentUtils.java
C:\Users\Joy_Wang\IdeaProjects\work-connect-pom\work-connect-logic\src\main\java\com\cy\work\connect\logic\vo\WCConfigTempletVo.java
C:\Users\Joy_Wang\IdeaProjects\work-connect-pom\work-connect-logic\src\main\java\com\cy\work\connect\logic\cache\WCBaseDepAccessInfoCache.java
C:\Users\Joy_Wang\IdeaProjects\work-connect-pom\work-connect-logic\src\main\java\com\cy\work\connect\logic\manager\WCRollbackHistoryManager.java
C:\Users\Joy_Wang\IdeaProjects\work-connect-pom\work-connect-logic\src\main\java\com\cy\work\connect\logic\query\DepRoleQueryService.java
C:\Users\Joy_Wang\IdeaProjects\work-connect-pom\work-connect-logic\src\main\java\com\cy\work\connect\logic\manager\WCManagerSignInfoDetailManager.java
C:\Users\Joy_Wang\IdeaProjects\work-connect-pom\work-connect-logic\src\main\java\com\cy\work\connect\logic\helper\WcSkypeAlertHelper.java
C:\Users\Joy_Wang\IdeaProjects\work-connect-pom\work-connect-logic\src\main\java\com\cy\work\connect\logic\helper\ClearCacheHelper.java
C:\Users\Joy_Wang\IdeaProjects\work-connect-pom\work-connect-logic\src\main\java\com\cy\work\connect\logic\vo\WCGroupVo.java
C:\Users\Joy_Wang\IdeaProjects\work-connect-pom\work-connect-logic\src\main\java\com\cy\work\connect\logic\manager\CountUnreadReplyLogic.java
C:\Users\Joy_Wang\IdeaProjects\work-connect-pom\work-connect-logic\src\main\java\com\cy\work\connect\logic\manager\WCHomepageFavoriteManager.java
C:\Users\Joy_Wang\IdeaProjects\work-connect-pom\work-connect-logic\src\main\java\com\cy\work\connect\logic\vo\view\WorkFunItemGroupVO.java
C:\Users\Joy_Wang\IdeaProjects\work-connect-pom\work-connect-logic\src\main\java\com\cy\work\connect\logic\manager\WCReadReceiptsManager.java
C:\Users\Joy_Wang\IdeaProjects\work-connect-pom\work-connect-logic\src\main\java\com\cy\work\connect\logic\helper\WCMasterHelper.java
C:\Users\Joy_Wang\IdeaProjects\work-connect-pom\work-connect-logic\src\main\java\com\cy\work\connect\logic\manager\WCManagerSignInfoManager.java
C:\Users\Joy_Wang\IdeaProjects\work-connect-pom\work-connect-logic\src\main\java\com\cy\work\connect\logic\manager\WCTransManager.java
C:\Users\Joy_Wang\IdeaProjects\work-connect-pom\work-connect-logic\src\main\java\com\cy\work\connect\logic\vo\BpmSignTo.java
C:\Users\Joy_Wang\IdeaProjects\work-connect-pom\work-connect-logic\src\main\java\com\cy\work\connect\logic\vo\WCLinkGroupinfoVO.java
C:\Users\Joy_Wang\IdeaProjects\work-connect-pom\work-connect-logic\src\main\java\com\cy\work\connect\logic\manager\SpecificRoleForwardDepManager.java
C:\Users\Joy_Wang\IdeaProjects\work-connect-pom\work-connect-logic\src\main\java\com\cy\work\connect\logic\helper\RelationDepHelper.java
C:\Users\Joy_Wang\IdeaProjects\work-connect-pom\work-connect-logic\src\main\java\com\cy\work\connect\logic\vo\enums\WcBpmFlowType.java
C:\Users\Joy_Wang\IdeaProjects\work-connect-pom\work-connect-logic\src\main\java\com\cy\work\connect\logic\helper\signflow\ReqFlowActionHelper.java
C:\Users\Joy_Wang\IdeaProjects\work-connect-pom\work-connect-logic\src\main\java\com\cy\work\connect\logic\manager\WCTransSpecialPermissionManager.java
C:\Users\Joy_Wang\IdeaProjects\work-connect-pom\work-connect-logic\src\main\java\com\cy\work\connect\logic\manager\WCAlertManager.java
C:\Users\Joy_Wang\IdeaProjects\work-connect-pom\work-connect-logic\src\main\java\com\cy\work\connect\logic\cache\WCTransSpecialPermissionCache.java
C:\Users\Joy_Wang\IdeaProjects\work-connect-pom\work-connect-logic\src\main\java\com\cy\work\connect\logic\manager\WCMasterCustomLogicManager.java
C:\Users\Joy_Wang\IdeaProjects\work-connect-pom\work-connect-logic\src\main\java\com\cy\work\connect\logic\manager\WorkSettingOrgManager.java
